Topic Modeling
…
lda_topics <- lda_out %>%
tidy(matrix = "beta")
lda_topics %>%
arrange(desc(beta))

## # A tibble: 6,500 x 3
##    topic term        beta
##    <int> <chr>      <dbl>
##  1     2 ve        0.0295
##  2     1 european  0.0196
##  3     2 people    0.0169
##  4     1 countries 0.0137
##  5     1 britain   0.0121
##  6     1 british   0.0119
##  7     1 security  0.0115
##  8     1 people    0.0114
##  9     1 union     0.0110
## 10     1 eu        0.0108
## # ... with 6,490 more rows
…
